{"count": 91, "limit": 10, "pages": 10, "page": 1, "lists": [{"id": "126037521", "name": "The Latest Historical Fiction August 2012", "item_count": 12, "created": "2012-08-20T16:00:33Z", "updated": "2012-08-20T16:44:03Z", "list_type": {"id": "GENRE_GUIDE", "name": "Genre Guide"}, "details_url": "http://any.bibliocommons.com/list/show/84339150/126037521"}, {"id": "123659587", "name": "Top Ten Documentaries: Laura's Picks", "item_count": 10, "created": "2012-08-07T00:08:17Z", "updated": "2012-08-13T23:53:22Z", "list_type": {"id": "TOP_10", "name": "Top 10 List"}, "details_url": "http://any.bibliocommons.com/list/show/84339150/123659587"}, {"id": "123279331", "name": "Tracy's Teen Lit Picks", "item_count": 10, "created": "2012-08-03T23:33:19Z", "updated": "2012-08-03T23:43:04Z", "list_type": {"id": "TOP_10", "name": "Top 10 List"}, "details_url": "http://any.bibliocommons.com/list/show/84339150/123279331"}, {"id": "122447671", "name": "Top Ten Nonfiction Titles: Laura's Picks", "item_count": 10, "created": "2012-07-30T18:16:08Z", "updated": "2012-07-30T21:22:01Z", "list_type": {"id": "TOP_10", "name": "Top 10 List"}, "details_url": "http://any.bibliocommons.com/list/show/84339150/122447671"}, {"id": "122200121", "name": "Fiction Coming Attractions September 2012", "item_count": 15, "created": "2012-07-28T19:38:05Z", "updated": "2012-07-28T20:15:57Z", "list_type": {"id": "GENRE_GUIDE", "name": "Genre Guide"}, "details_url": "http://any.bibliocommons.com/list/show/84339150/122200121"}, {"id": "120224831", "name": "Cold Books and Movies for Hot Weather", "item_count": 10, "created": "2012-07-17T22:34:48Z", "updated": "2012-07-17T22:37:48Z", "list_type": {"id": "TOP_10", "name": "Top 10 List"}, "details_url": "http://any.bibliocommons.com/list/show/84339150/120224831"}, {"id": "120109914", "name": "New Audiobooks on Playaway July 2012", "item_count": 15, "created": "2012-07-17T15:46:53Z", "updated": "2012-07-17T17:02:46Z", "list_type": {"id": "GENRE_GUIDE", "name": "Genre Guide"}, "details_url": "http://any.bibliocommons.com/list/show/84339150/120109914"}, {"id": "119960031", "name": "Top Ten CDs: Laura's Picks", "item_count": 10, "created": "2012-07-16T20:57:26Z", "updated": "2012-07-23T21:09:19Z", "list_type": {"id": "TOP_10", "name": "Top 10 List"}, "details_url": "http://any.bibliocommons.com/list/show/84339150/119960031"}, {"id": "117470892", "name": "Joel's Dozen DVDs of Distinction", "item_count": 12, "created": "2012-07-03T14:39:50Z", "updated": "2012-07-03T16:25:25Z", "list_type": {"id": "TOP_10", "name": "Top 10 List"}, "details_url": "http://any.bibliocommons.com/list/show/84339150/117470892"}, {"id": "116918248", "name": "Fiction Coming Attractions August 2012", "item_count": 15, "created": "2012-06-29T19:59:13Z", "updated": "2012-06-29T20:14:03Z", "list_type": {"id": "GENRE_GUIDE", "name": "Genre Guide"}, "details_url": "http://any.bibliocommons.com/list/show/84339150/116918248"}]}