{"count": 96, "limit": 10, "pages": 10, "page": 1, "lists": [{"id": "128982301", "name": "New Scandanavian Mysteries (September, 2012)", "item_count": 9, "created": "2012-09-06T22:06:10Z", "updated": "2012-09-06T22:11:20Z", "list_type": {"id": "GENRE_GUIDE", "name": "Genre Guide"}, "details_url": "http://any.bibliocommons.com/list/show/84339150/128982301"}, {"id": "128535567", "name": "Dave's Faves Fiction", "item_count": 10, "created": "2012-09-04T17:44:49Z", "updated": "2012-09-04T17:52:16Z", "list_type": {"id": "TOP_10", "name": "Top 10 List"}, "details_url": "http://any.bibliocommons.com/list/show/84339150/128535567"}, {"id": "128103314", "name": "Fiction Coming Attractions October 2012", "item_count": 18, "created": "2012-08-31T17:09:18Z", "updated": "2012-08-31T17:45:04Z", "list_type": {"id": "GENRE_GUIDE", "name": "Genre Guide"}, "details_url": "http://any.bibliocommons.com/list/show/84339150/128103314"}, {"id": "127773801", "name": "Tracy's Top Audiobooks  (so far)", "item_count": 6, "created": "2012-08-29T17:11:23Z", "updated": "2012-08-31T23:11:00Z", "list_type": {"id": "TOPIC_GUIDE", "name": "Topic Guide"}, "details_url": "http://any.bibliocommons.com/list/show/84339150/127773801"}, {"id": "127766021", "name": "New Fiction Audiobooks September 2012", "item_count": 21, "created": "2012-08-29T16:41:05Z", "updated": "2012-09-05T20:00:06Z", "list_type": {"id": "TOPIC_GUIDE", "name": "Topic Guide"}, "details_url": "http://any.bibliocommons.com/list/show/84339150/127766021"}, {"id": "126037521", "name": "The Latest Historical Fiction August 2012", "item_count": 12, "created": "2012-08-20T16:00:33Z", "updated": "2012-08-20T16:44:03Z", "list_type": {"id": "GENRE_GUIDE", "name": "Genre Guide"}, "details_url": "http://any.bibliocommons.com/list/show/84339150/126037521"}, {"id": "123659587", "name": "Top Ten Documentaries: Laura's Picks", "item_count": 10, "created": "2012-08-07T00:08:17Z", "updated": "2012-08-13T23:53:22Z", "list_type": {"id": "TOP_10", "name": "Top 10 List"}, "details_url": "http://any.bibliocommons.com/list/show/84339150/123659587"}, {"id": "123279331", "name": "Tracy's Teen Lit Picks", "item_count": 10, "created": "2012-08-03T23:33:19Z", "updated": "2012-08-03T23:43:04Z", "list_type": {"id": "TOP_10", "name": "Top 10 List"}, "details_url": "http://any.bibliocommons.com/list/show/84339150/123279331"}, {"id": "122447671", "name": "Top Ten Nonfiction Titles: Laura's Picks", "item_count": 10, "created": "2012-07-30T18:16:08Z", "updated": "2012-07-30T21:22:01Z", "list_type": {"id": "TOP_10", "name": "Top 10 List"}, "details_url": "http://any.bibliocommons.com/list/show/84339150/122447671"}, {"id": "122200121", "name": "Fiction Coming Attractions September 2012", "item_count": 15, "created": "2012-07-28T19:38:05Z", "updated": "2012-07-28T20:15:57Z", "list_type": {"id": "GENRE_GUIDE", "name": "Genre Guide"}, "details_url": "http://any.bibliocommons.com/list/show/84339150/122200121"}]}